{
	"architecture": "Intel i7-1265U, 32gb RAM DDR4",
	"max_ram_GB": 16,
	"timeout_seconds": 240,
	"iterations": 3,
	"executables": {
		"ASP": "clingo",
		"FIZ": "python /home/sva/Documents/Projectjes/FIZ/FIZ.py",
		"FOLASP": "python /home/sva/Documents/Doctoraat/IDP-Z3/folasp-engine/folasp.py",
		"IDP3": "idp",
		"IDP-Z3": "idp-engine",
		"ManyWorlds": "ManyWorlds",
		"Z3Py": "python",
		"SLI": "sli"
	},
	"versions": {
		"ASP": "5.7.1",
		"FIZ": "8ec76551b940f1a35333a8aab23d84401751e231",
		"FOLASP": "96a43502573945f5f24d35a22644eb6d9ac6f1f5",
		"IDP3": "3.7.1",
		"IDP-Z3": "0.10.12",
		"ManyWorlds": "2452700",
		"Z3Py": "4.12.2.0",
		"SLI": "a2d4bfcc53593228ae29639eb7bea770c99471a8"
	},
	"benchmarks": [
		{
			"Name": "Edges",
			"Sizes": [
				50,
				100,
				150,
				200,
				250,
				300,
				350,
				400,
				450
			],
			"ASP": [
				"edges"
			],
			"FIZ": [
				"edges_mx"
			],
			"FOLASP": [
				"edges_mx"
			],
			"IDP3": [
				"edges_mx"
			],
			"IDP-Z3": [
				"edges_mx"
			],
			"ManyWorlds": [
				"edges"
			],
			"Z3Py": [
				"Edges/edges_ground",
				"Edges/edges_fun"
			],
			"SLI": [
				"edges_mx"
			]
		},
		{
			"Name": "Miss Manners",
			"Sizes": [
				16,
				32,
				64,
				128
			],
			"ASP": [
				"missmanners"
			],
			"FIZ": [
				"missmanners"
			],
			"FOLASP": [
				"missmanners"
			],
			"IDP3": [
				"missmanners"
			],
			"IDP-Z3": [
				"missmanners"
			],
			"ManyWorlds": [
				"missmanners"
			],
			"Z3Py": [],
			"SLI": [
				"missmanners"
			]
		},
		{
			"Name": "Miss Manners Fixed Gender",
			"Sizes": [
				16,
				32,
				64,
				128
			],
			"ASP": [
				"missmanners_fixed_gender"
			],
			"FIZ": [
				"missmanners_fixed_gender_mx"
			],
			"FOLASP": [
				"missmanners_fixed_gender_mx"
			],
			"IDP3": [
				"missmanners_fixed_gender_mx"
			],
			"IDP-Z3": [
				"missmanners_fixed_gender_mx"
			],
			"ManyWorlds": [
				"missmanners_fixed_gender"
			],
			"Z3Py": [],
			"SLI": [
				"missmanners_fixed_gender_mx"
			]
		},
		{
			"Name": "Sudoku",
			"Sizes": [
				4,
				9,
				16,
				25
			],
			"ASP": [
				"sudoku"
			],
			"FIZ": [
				"sudoku_alt_mx"
			],
			"FOLASP": [
				"sudoku_mx",
				"sudoku_alt_mx"
			],
			"IDP3": [
				"sudoku_mx",
				"sudoku_alt_mx"
			],
			"IDP-Z3": [
				"sudoku_mx",
				"sudoku_alt_mx"
			],
			"ManyWorlds": [
				"sudoku"
			],
			"Z3Py": [
				"sudoku"
			],
			"SLI": [
				"sudoku_alt_mx"
			]
		},
		{
			"Name": "NQueens",
			"Sizes": [
				4,
				9,
				14,
				19,
				24
			],
			"ASP": [
				"nqueens_mx",
				"nqueens_alt"
			],
			"FIZ": [
				"nqueens_mx"
			],
			"FOLASP": [
				"nqueens"
			],
			"IDP3": [
				"nqueens",
				"nqueens_alt"
			],
			"IDP-Z3": [
				"nqueens_mx",
				"nqueens_alt"
			],
			"ManyWorlds": [
				"nqueens",
				"nqueens_alt"
			],
			"Z3Py": [
				"nqueens"
			],
			"SLI": [
				"nqueens_mx"
			]
		},
		{
			"Name": "Pigeons",
			"Sizes": [
				100,
				200,
				300,
				400,
				500
			],
			"ASP": [
				"pigeon"
			],
			"FIZ": [
				"pigeon_mx"
			],
			"FOLASP": [
				"pigeon_mx"
			],
			"IDP3": [
				"pigeon_mx"
			],
			"IDP-Z3": [
				"pigeon_mx"
			],
			"ManyWorlds": [
				"pigeon"
			],
			"Z3Py": [
				"Pigeons/pigeons_ground",
				"Pigeons/pigeons_ground_distinct"
			],
			"SLI": [
				"pigeon_mx"
			]
		},
		{
			"Name": "Graceful",
			"Sizes": [
				"0001",
				"0002",
				"0003",
				"0004",
				"0005",
				"0006",
				"0007",
				"0008",
				"0009",
				"0010"
			],
			"ASP": [
				"Graceful/graceful"
			],
			"FIZ": [
				"Graceful/graceful"
			],
			"FOLASP": [
				"Graceful/graceful"
			],
			"IDP3": [
				"Graceful/graceful"
			],
			"IDP-Z3": [
				"Graceful/graceful",
				"Graceful/graceful_alt"
			],
			"ManyWorlds": [
				"Graceful/graceful",
				"Graceful/graceful_alt"
			],
			"Z3Py": [
				"Graceful/graceful"
			],
			"SLI": []
		},
		{
			"Name": "Big Interpretation",
			"Sizes": [
				"100",
				"500",
				"1000",
				"5000",
				"10000",
				"50000",
				"100000",
				"250000"
			],
			"ASP": [
				"BigInterpretation/size"
			],
			"FIZ": [
				"BigInterpretation/size"
			],
			"FOLASP": [
				"BigInterpretation/size"
			],
			"IDP3": [
				"BigInterpretation/size"
			],
			"IDP-Z3": [
				"BigInterpretation/size"
			],
			"ManyWorlds": [
				"BigInterpretation/size"
			],
			"Z3Py": [],
			"SLI": [
				"BigInterpretation/size"
			]
		},
		{
			"Name": "Half Interpretation",
			"Sizes": [
				"100",
				"500",
				"1000",
				"5000",
				"10000",
				"50000",
				"100000",
				"250000"
			],
			"ASP": [
				"BigInterpretation/size_half"
			],
			"FIZ": [
				"BigInterpretation/size_half"
			],
			"FOLASP": [
				"BigInterpretation/size_half"
			],
			"IDP3": [
				"BigInterpretation/size_half"
			],
			"IDP-Z3": [
				"BigInterpretation/size_half"
			],
			"ManyWorlds": [
				"BigInterpretation/size_half"
			],
			"Z3Py": [],
			"SLI": [
				"BigInterpretation/size_half"
			]
		},
		{
			"Name": "Laptop",
			"Sizes": [
				"100",
				"200",
				"300",
				"400",
				"500",
				"600",
				"700",
				"800",
				"900",
				"1000",
				"1100",
				"1200",
				"1300",
				"1400",
				"1500",
				"1600",
				"1700",
				"1800",
				"1900",
				"2000",
				"2100"
			],
			"ASP": [],
			"FIZ": [
				"Laptops/laptop"
			],
			"FOLASP": [],
			"IDP3": [],
			"IDP-Z3": [
				"Laptops/laptop"
			],
			"ManyWorlds": [],
			"Z3Py": [],
			"SLI": []
		},
		{
			"Name": "Edges Propagation",
			"Sizes": [
				"50",
				"100",
				"150",
				"200",
				"250",
				"300",
				"350",
				"400",
				"450"
			],
			"ASP": [
				"edges_prop"
			],
			"FIZ": [
				"edges_prop"
			],
			"FOLASP": [],
			"IDP3": [
				"edges_prop"
			],
			"IDP-Z3": [
				"edges_prop"
			],
			"ManyWorlds": [
				"edges_prop"
			],
			"Z3Py": [
				"Edges/edges_prop_fun",
				"Edges/edges_prop_ground"
			],
			"SLI": []
		},
		{
			"Name": "Stu-Reject Propagation",
			"Sizes": [
				"10",
				"20",
				"30",
				"40",
				"50",
				"60",
				"70",
				"80",
				"90",
				"100"
			],
			"ASP": [
				"Stu-Reject/stureject_prop"
			],
			"FIZ": [
				"Stu-Reject/stureject_prop"
			],
			"FOLASP": [],
			"IDP3": [
				"Stu-Reject/stureject_prop"
			],
			"IDP-Z3": [
				"Stu-Reject/stureject_prop"
			],
			"ManyWorlds": [
				"Stu-Reject/stureject_prop"
			],
			"Z3Py": [],
			"SLI": []
		},
		{
			"Name": "Small Triangle Graph",
			"Sizes": [
				"10",
				"20",
				"30",
				"40",
				"50",
				"60",
				"70"
			],
			"ASP": [
				"TriangleGraph/triangle_graph"
			],
			"FIZ": [
				"TriangleGraph/triangle_graph"
			],
			"FOLASP": [
				"TriangleGraph/triangle_graph"
			],
			"IDP3": [
				"TriangleGraph/triangle_graph"
			],
			"IDP-Z3": [
				"TriangleGraph/triangle_graph"
			],
			"ManyWorlds": [
				"TriangleGraph/triangle_graph"
			],
			"Z3Py": [],
			"SLI": [
				"TriangleGraph/triangle_graph"
			]
		},
		{
			"Name": "Large Triangle Graph",
			"Sizes": [
				"10",
				"100",
				"1000",
				"10000",
				"100000",
				"1000000"
			],
			"ASP": [
				"TriangleGraph/large_triangle_graph"
			],
			"FIZ": [
				"TriangleGraph/large_triangle_graph"
			],
			"FOLASP": [
				"TriangleGraph/large_triangle_graph"
			],
			"IDP3": [
				"TriangleGraph/large_triangle_graph"
			],
			"IDP-Z3": [
				"TriangleGraph/large_triangle_graph"
			],
			"ManyWorlds": [
				"TriangleGraph/large_triangle_graph"
			],
			"Z3Py": [],
			"SLI": [
				"TriangleGraph/large_triangle_graph"
			]
		}
	],
	"timings": {
		"Edges": {
			"SLI": {
				"edges_mx": {
					"50": 0.10956605275472005,
					"100": 0.39469369252522785,
					"150": 0.9012691179911295,
					"200": 1.6357794602711995,
					"250": 2.5909855365753174,
					"300": 3.7279924551645913,
					"350": 5.126875241597493,
					"400": 6.97964072227478,
					"450": 8.641725301742554
				}
			},
			"ManyWorlds": {
				"edges": {
					"50": 0.03558516502380371,
					"100": 0.12475967407226562,
					"150": 0.3117232322692871,
					"200": 0.5838509400685629,
					"250": 0.9547526836395264,
					"300": 1.5313971042633057,
					"350": 2.0748770236968994,
					"400": 3.026822646458944,
					"450": 3.9500507513682046
				}
			},
			"ASP": {
				"edges": {
					"50": 0.013014872868855795,
					"100": 0.0498963197072347,
					"150": 0.13023002942403158,
					"200": 0.29640841484069824,
					"250": 0.5706755320231119,
					"300": 0.9350558121999105,
					"350": 1.6240590413411458,
					"400": 2.4225388367970786,
					"450": 3.687711715698242
				}
			},
			"FIZ": {
				"edges_mx": {
					"50": 0.35921446482340497,
					"100": 1.0089067618052165,
					"150": 2.1134703954060874,
					"200": 3.6499922275543213,
					"250": 5.7869735558827715,
					"300": 7.892916997273763,
					"350": 10.788093169530233,
					"400": 14.288079897562662,
					"450": 18.030648867289226
				}
			},
			"FOLASP": {
				"edges_mx": {
					"50": 0.17932025591532388,
					"100": 0.4967435995737712,
					"150": 1.3429826100667317,
					"200": 3.3772096633911133,
					"250": 7.415906270345052,
					"300": 13.406938552856445,
					"350": 21.62617262204488,
					"400": 32.048688888549805,
					"450": 46.330835501352944
				}
			},
			"IDP3": {
				"edges_mx": {
					"50": 0.1043242613474528,
					"100": 0.12825481096903482,
					"150": 0.18184765179951987,
					"200": 0.3164384365081787,
					"250": 0.4891328811645508,
					"300": 0.7942665417989095,
					"350": 1.1100432872772217,
					"400": 1.5128174622853596,
					"450": 1.8534878094991047
				}
			},
			"IDP-Z3": {
				"edges_mx": {
					"50": 1.030462662378947,
					"100": 4.023550669352214,
					"150": 9.300707260767618,
					"200": 17.742405970891316,
					"250": 29.686771392822266,
					"300": 47.30349477132162,
					"350": 70.80423339207967,
					"400": 102.2800350189209,
					"450": 144.0939702987671
				}
			},
			"Z3Py": {
				"Edges/edges_ground": {
					"50": 0.31831908226013184,
					"100": 0.9696575005849203,
					"150": 2.0674475034077964,
					"200": 3.610510985056559,
					"250": 5.616513729095459,
					"300": 8.109686136245728,
					"350": 10.991930961608887,
					"400": 14.295156081517538,
					"450": 18.163698355356853
				},
				"Edges/edges_fun": {
					"50": 0.6625221570332845,
					"100": 2.401230812072754,
					"150": 5.550901412963867,
					"200": 10.652950684229532,
					"250": 18.313963174819946,
					"300": 29.387027581532795,
					"350": 44.49710965156555,
					"400": 65.17071199417114,
					"450": 93.02205220858256
				}
			}
		},
		"Miss Manners": {
			"SLI": {
				"missmanners": {
					"16": 0.07915735244750977,
					"32": 1.4935836791992188,
					"64": "-1",
					"128": "-1"
				}
			},
			"ManyWorlds": {
				"missmanners": {
					"16": 0.0728162129720052,
					"32": 4.207313934961955,
					"64": "-1",
					"128": "-1"
				}
			},
			"FIZ": {
				"missmanners": {
					"16": 0.1625370184580485,
					"32": 0.212052583694458,
					"64": 0.5309094587961832,
					"128": 7.565156936645508
				}
			},
			"ASP": {
				"missmanners": {
					"16": 0.006269613901774089,
					"32": 0.018554528554280598,
					"64": 0.31544168790181476,
					"128": 0.9653587341308594
				}
			},
			"FOLASP": {
				"missmanners": {
					"16": 1.6089614232381184,
					"32": 70.27935274442036,
					"64": 80.20839921633403,
					"128": 80.16629521052043
				}
			},
			"IDP3": {
				"missmanners": {
					"16": 0.09947816530863444,
					"32": 0.48550136884053546,
					"64": 8.659307400385538,
					"128": "-1"
				}
			},
			"IDP-Z3": {
				"missmanners": {
					"16": 0.3322412172953288,
					"32": 0.91514786084493,
					"64": 35.17857384681702,
					"128": "-1"
				}
			}
		},
		"Miss Manners Fixed Gender": {
			"SLI": {
				"missmanners_fixed_gender_mx": {
					"16": 0.021699190139770508,
					"32": 0.07235383987426758,
					"64": 0.608086109161377,
					"128": 52.46256923675537
				}
			},
			"ManyWorlds": {
				"missmanners_fixed_gender": {
					"16": 0.024769306182861328,
					"32": 0.044514099756876625,
					"64": 0.20200276374816895,
					"128": 2.237945556640625
				}
			},
			"FIZ": {
				"missmanners_fixed_gender_mx": {
					"16": 0.16727900505065918,
					"32": 0.20876542727152506,
					"64": 0.45320653915405273,
					"128": 1.6172900199890137
				}
			},
			"ASP": {
				"missmanners_fixed_gender": {
					"16": 0.0054285526275634766,
					"32": 0.006877740224202474,
					"64": 0.016670385996500652,
					"128": 0.03981788953145345
				}
			},
			"FOLASP": {
				"missmanners_fixed_gender_mx": {
					"16": 0.9356529712677002,
					"32": 15.390021244684855,
					"64": 77.58149838447571,
					"128": 72.37002754211426
				}
			},
			"IDP3": {
				"missmanners_fixed_gender_mx": {
					"16": 0.08636474609375,
					"32": 0.12918575604756674,
					"64": 0.3190457026163737,
					"128": 4.094943364461263
				}
			},
			"IDP-Z3": {
				"missmanners_fixed_gender_mx": {
					"16": 0.30454444885253906,
					"32": 0.7413980960845947,
					"64": 2.413260062535604,
					"128": 9.98549977938334
				}
			}
		},
		"Sudoku": {
			"SLI": {
				"sudoku_alt_mx": {
					"4": 0.026067018508911133,
					"9": 1.085241397221883,
					"16": 53.430902083714805,
					"25": "-1"
				}
			},
			"ManyWorlds": {
				"sudoku": {
					"4": 0.015995105107625324,
					"9": 0.02591387430826823,
					"16": 0.08312225341796875,
					"25": 0.3072676658630371
				}
			},
			"FIZ": {
				"sudoku_alt_mx": {
					"4": "-1",
					"9": "-1",
					"16": "-1",
					"25": "-1"
				}
			},
			"ASP": {
				"sudoku": {
					"4": 0.005072355270385742,
					"9": 0.008956352869669596,
					"16": 0.030616919199625652,
					"25": 0.09466298421223958
				}
			},
			"FOLASP": {
				"sudoku_mx": {
					"4": 0.14007035891215006,
					"9": 11.439407189687094,
					"16": "-1",
					"25": 51.57950894037882
				},
				"sudoku_alt_mx": {
					"4": 0.10903080304463704,
					"9": 18.876956939697266,
					"16": "-1",
					"25": 95.51680135726929
				}
			},
			"IDP3": {
				"sudoku_mx": {
					"4": 2.5883260567982993,
					"9": 4.096021334330241,
					"16": 8.662640810012817,
					"25": 26.332863171895344
				},
				"sudoku_alt_mx": {
					"4": 0.0827484925587972,
					"9": 0.13401238123575845,
					"16": 0.31422074635823566,
					"25": 1.9939791361490886
				}
			},
			"IDP-Z3": {
				"sudoku_mx": {
					"4": 0.33725396792093915,
					"9": 4.6299614906311035,
					"16": 50.5087780157725,
					"25": "-1"
				},
				"sudoku_alt_mx": {
					"4": 0.21176528930664062,
					"9": 0.42991185188293457,
					"16": 1.6133054097493489,
					"25": 6.069453716278076
				}
			},
			"Z3Py": {
				"sudoku": {
					"4": 0.11096437772115071,
					"9": 25.13769030570984,
					"16": 25.344921509424847,
					"25": 41.00340978304545
				}
			}
		},
		"NQueens": {
			"SLI": {
				"nqueens_mx": {
					"4": 0.01801125208536784,
					"9": 0.04056978225708008,
					"14": 0.09683624903361003,
					"19": 0.21357488632202148,
					"24": 0.5053595701853434
				}
			},
			"ManyWorlds": {
				"nqueens": {
					"4": 0.014790693918863932,
					"9": 0.013948361078898111,
					"14": 0.02184152603149414,
					"19": 0.029349486033121746,
					"24": 0.039392948150634766
				},
				"nqueens_alt": {
					"4": 0.007793267567952474,
					"9": 0.009931166966756185,
					"14": 0.02532513936360677,
					"19": 0.045102198918660484,
					"24": 0.08111786842346191
				}
			},
			"FIZ": {
				"nqueens_mx": {
					"4": 0.15029501914978027,
					"9": 0.21081201235453287,
					"14": 0.48121802012125653,
					"19": 1.2375781536102295,
					"24": 2.843465805053711
				}
			},
			"ASP": {
				"nqueens_mx": {
					"4": 0.004296223322550456,
					"9": 0.008407672246297201,
					"14": 0.018686374028523762,
					"19": 0.048573811848958336,
					"24": 0.11523723602294922
				},
				"nqueens_alt": {
					"4": 0.005666097005208333,
					"9": 0.004947106043497722,
					"14": 0.00982340176900228,
					"19": 0.019147475560506184,
					"24": 0.031789302825927734
				}
			},
			"FOLASP": {
				"nqueens": {
					"4": 0.1036229928334554,
					"9": 0.24336798985799155,
					"14": 0.961041529973348,
					"19": 3.2164251804351807,
					"24": 8.280038754145304
				}
			},
			"IDP3": {
				"nqueens": {
					"4": 0.08509580294291179,
					"9": 0.08929236729939778,
					"14": 0.18581223487854004,
					"19": 0.3980582555135091,
					"24": 1.1021946271260579
				},
				"nqueens_alt": {
					"4": 0.09089223543802898,
					"9": 0.09122014045715332,
					"14": 0.18742156028747559,
					"19": 0.18820452690124512,
					"24": 0.3881674607594808
				}
			},
			"IDP-Z3": {
				"nqueens_mx": {
					"4": 0.22216526667277017,
					"9": 1.0614600976308186,
					"14": 4.9666227499643965,
					"19": 16.03183364868164,
					"24": 40.61624733606974
				},
				"nqueens_alt": {
					"4": 0.2057193915049235,
					"9": 0.247834841410319,
					"14": 0.3466193675994873,
					"19": 0.5454476674397787,
					"24": 0.6588302453358968
				}
			},
			"Z3Py": {
				"nqueens": {
					"4": 0.10724679629007976,
					"9": 0.11558739344278972,
					"14": 0.16781369845072427,
					"19": 0.20222107569376627,
					"24": 0.7089564800262451
				}
			}
		},
		"Pigeons": {
			"SLI": {
				"pigeon_mx": {
					"100": 25.40625588099162,
					"200": 28.00169626871745,
					"300": 33.490356842676796,
					"400": 85.86525503794353,
					"500": "-1"
				}
			},
			"ManyWorlds": {
				"pigeon": {
					"100": 0.09180553754170735,
					"200": 0.5439921220143636,
					"300": 1.2717391649882,
					"400": 2.957016626993815,
					"500": 6.617110729217529
				}
			},
			"FIZ": {
				"pigeon_mx": {
					"100": 25.436919530232746,
					"200": 27.781710227330525,
					"300": 44.128848234812416,
					"400": 136.1447353363037,
					"500": "-1"
				}
			},
			"ASP": {
				"pigeon": {
					"100": 0.03726037343343099,
					"200": 0.15247821807861328,
					"300": 0.35232098897298175,
					"400": 0.6612693468729655,
					"500": 1.0772008101145427
				}
			},
			"FOLASP": {
				"pigeon_mx": {
					"100": 87.90364058812459,
					"200": 82.26308679580688,
					"300": 81.93859783808391,
					"400": 81.29264028867085,
					"500": 82.36619170506795
				}
			},
			"IDP3": {
				"pigeon_mx": {
					"100": 2.6040403842926025,
					"200": 20.07537905375163,
					"300": "-1",
					"400": "-1",
					"500": "-1"
				}
			},
			"IDP-Z3": {
				"pigeon_mx": {
					"100": 1.9137911796569824,
					"200": 7.4049413204193115,
					"300": 16.74604098002116,
					"400": 29.246956427892048,
					"500": 45.79425756136576
				}
			},
			"Z3Py": {
				"Pigeons/pigeons_ground": {
					"100": 0.7774224281311035,
					"200": 5.54648741086324,
					"300": 34.75050449371338,
					"400": 96.21461184819539,
					"500": 10.259238243103027
				},
				"Pigeons/pigeons_ground_distinct": {
					"100": 0.36496154467264813,
					"200": 1.7823838392893474,
					"300": 18.078200260798138,
					"400": 63.74482226371765,
					"500": "-1"
				}
			}
		},
		"Big Interpretation": {
			"SLI": {
				"BigInterpretation/size": {
					"100": 0.013988812764485678,
					"500": 0.01447455088297526,
					"1000": 0.01712512969970703,
					"5000": 0.030797322591145832,
					"10000": 0.056278228759765625,
					"50000": 0.2702917257944743,
					"100000": 0.5392541885375977,
					"250000": 1.5988413492838542
				}
			},
			"FIZ": {
				"BigInterpretation/size": {
					"100": 0.15334240595499674,
					"500": 0.18029173215230307,
					"1000": 0.23495999972025552,
					"5000": 0.798580010732015,
					"10000": 2.1838508447011313,
					"50000": 38.25705806414286,
					"100000": 150.4839874903361,
					"250000": "-1"
				}
			},
			"ASP": {
				"BigInterpretation/size": {
					"100": 0.004792531331380208,
					"500": 0.00830078125,
					"1000": 0.010420878728230795,
					"5000": 0.036399523417154946,
					"10000": 0.07855653762817383,
					"50000": 0.5096267859141032,
					"100000": 1.3299748102823894,
					"250000": 5.549143075942993
				}
			},
			"FOLASP": {
				"BigInterpretation/size": {
					"100": 0.1007382074991862,
					"500": 0.12963120142618814,
					"1000": 0.18012515703837076,
					"5000": 0.6006600062052408,
					"10000": 1.6546414693196614,
					"50000": 39.04262558619181,
					"100000": 127.16455094019572,
					"250000": "-1"
				}
			},
			"IDP3": {
				"BigInterpretation/size": {
					"100": 0.06218417485555013,
					"500": 0.06235710779825846,
					"1000": 0.05882557233174642,
					"5000": 0.06987222035725911,
					"10000": 0.11931300163269043,
					"50000": 0.2170750300089518,
					"100000": 0.48439566294352215,
					"250000": 0.9643863836924235
				}
			},
			"IDP-Z3": {
				"BigInterpretation/size": {
					"100": 0.18217070897420248,
					"500": 0.25900952021280926,
					"1000": 0.39606165885925293,
					"5000": 2.7198150952657065,
					"10000": 8.253300110499064,
					"50000": 161.918586174647,
					"100000": "-1",
					"250000": "-1"
				}
			},
			"ManyWorlds": {
				"BigInterpretation/size": {
					"100": 0.006418069203694661,
					"500": 0.010490338007609049,
					"1000": 0.017535686492919922,
					"5000": 0.09393707911173503,
					"10000": 0.35158276557922363,
					"50000": 9.795264800389608,
					"100000": 48.09993855158488,
					"250000": "-1"
				}
			}
		},
		"Half Interpretation": {
			"SLI": {
				"BigInterpretation/size_half": {
					"100": 0.016048590342203777,
					"500": 0.020088752110799152,
					"1000": 0.021549065907796223,
					"5000": 0.048356850941975914,
					"10000": 0.10302257537841797,
					"50000": 0.49384450912475586,
					"100000": 1.0325940450032551,
					"250000": 2.6194682121276855
				}
			},
			"FIZ": {
				"BigInterpretation/size_half": {
					"100": 0.15555127461751303,
					"500": 0.19834383328755698,
					"1000": 0.2514631748199463,
					"5000": 0.8048814137776693,
					"10000": 1.8538137276967366,
					"50000": 25.3165864944458,
					"100000": 93.16725476582845,
					"250000": "-1"
				}
			},
			"ASP": {
				"BigInterpretation/size_half": {
					"100": 0.004618724187215169,
					"500": 0.008691628774007162,
					"1000": 0.011608123779296875,
					"5000": 0.05120627085367838,
					"10000": 0.10990842183430989,
					"50000": 0.9669950803120931,
					"100000": 2.913772185643514,
					"250000": 14.672159751256308
				}
			},
			"FOLASP": {
				"BigInterpretation/size_half": {
					"100": 0.09846933682759602,
					"500": 0.12059815724690755,
					"1000": 0.1550107796986898,
					"5000": 0.4962146282196045,
					"10000": 1.301737944285075,
					"50000": 32.219841957092285,
					"100000": 103.54572693506877,
					"250000": "-1"
				}
			},
			"IDP3": {
				"BigInterpretation/size_half": {
					"100": 0.06270233790079753,
					"500": 0.06962871551513672,
					"1000": 0.060337066650390625,
					"5000": 0.10650984446207683,
					"10000": 0.11085351308186848,
					"50000": 0.281441609064738,
					"100000": 0.5525434811909994,
					"250000": 1.4322245915730794
				}
			},
			"IDP-Z3": {
				"BigInterpretation/size_half": {
					"100": 0.2088197867075602,
					"500": 0.40153010686238605,
					"1000": 0.6798798243204752,
					"5000": 3.5230069955190024,
					"10000": 8.072237968444824,
					"50000": 57.46066474914551,
					"100000": 185.8966642220815,
					"250000": "-1"
				}
			},
			"ManyWorlds": {
				"BigInterpretation/size_half": {
					"100": 0.005326271057128906,
					"500": 0.009327014287312826,
					"1000": 0.01334675153096517,
					"5000": 0.10370930035909016,
					"10000": 0.40633360544840497,
					"50000": 9.935689210891724,
					"100000": 40.77940837542216,
					"250000": "-1"
				}
			}
		},
		"Graceful": {
			"FIZ": {
				"Graceful/graceful": {
					"0001": 5.9824488162994385,
					"0002": 7.9445414543151855,
					"0003": "-1",
					"0004": 67.24148766199748,
					"0005": "-1",
					"0006": 85.80982327461243,
					"0007": 133.08345230420431,
					"0008": 40.633886098861694,
					"0009": "-1",
					"0010": "-1"
				}
			},
			"ASP": {
				"Graceful/graceful": {
					"0001": 3.4144457976023355,
					"0002": 4.2121345202128095,
					"0003": "-1",
					"0004": 29.436532735824585,
					"0005": 190.83652226130167,
					"0006": 183.14635268847147,
					"0007": "-1",
					"0008": 18.82316263516744,
					"0009": "-1",
					"0010": 94.40765992800395
				}
			},
			"FOLASP": {
				"Graceful/graceful": {
					"0001": 3.1972387631734214,
					"0002": 9.080618381500244,
					"0003": "-1",
					"0004": 23.848023811976116,
					"0005": 66.4717656771342,
					"0006": 45.04797069231669,
					"0007": 29.805028756459553,
					"0008": 25.557690540949505,
					"0009": "-1",
					"0010": "-1"
				}
			},
			"IDP3": {
				"Graceful/graceful": {
					"0001": 147.89298947652182,
					"0002": "-1",
					"0003": "-1",
					"0004": "-1",
					"0005": "-1",
					"0006": "-1",
					"0007": "-1",
					"0008": "-1",
					"0009": "-1",
					"0010": "-1"
				}
			},
			"IDP-Z3": {
				"Graceful/graceful": {
					"0001": 2.7981696923573813,
					"0002": 10.727145910263062,
					"0003": "-1",
					"0004": 31.960621515909832,
					"0005": 10.857139825820923,
					"0006": 30.236092567443848,
					"0007": 0.6735868453979492,
					"0008": 25.545842965443928,
					"0009": "-1",
					"0010": 12.60092274347941
				},
				"Graceful/graceful_alt": {
					"0001": 8.57375431060791,
					"0002": 3.767142136891683,
					"0003": "-1",
					"0004": 35.89548182487488,
					"0005": "-1",
					"0006": "-1",
					"0007": 72.7118907769521,
					"0008": 18.078376928965252,
					"0009": "-1",
					"0010": 43.561272859573364
				}
			},
			"ManyWorlds": {
				"Graceful/graceful": {
					"0001": 26.21960210800171,
					"0002": 30.650575478871662,
					"0003": "-1",
					"0004": "-1",
					"0005": "-1",
					"0006": 96.11750841140747,
					"0007": 0.06423560778299968,
					"0008": 95.3629497687022,
					"0009": "-1",
					"0010": "-1"
				},
				"Graceful/graceful_alt": {
					"0001": "-1",
					"0002": "-1",
					"0003": "-1",
					"0004": "-1",
					"0005": "-1",
					"0006": "-1",
					"0007": "-1",
					"0008": "-1",
					"0009": "-1",
					"0010": "-1"
				}
			},
			"Z3Py": {
				"Graceful/graceful": {
					"0001": 97.8278067111969,
					"0002": 24.39009467760722,
					"0003": "-1",
					"0004": "-1",
					"0005": "-1",
					"0006": "-1",
					"0007": "-1",
					"0008": "-1",
					"0009": "-1",
					"0010": "-1"
				}
			}
		},
		"Edges Propagation": {
			"ASP": {
				"edges_prop": {
					"50": 0.29232509930928546,
					"100": 4.443154335021973,
					"150": 22.410040378570557,
					"200": 67.98866359392802,
					"250": "-1",
					"300": "-1",
					"350": "-1",
					"400": "-1",
					"450": "-1"
				}
			},
			"FIZ": {
				"edges_prop": {
					"50": 0.19577749570210776,
					"100": 0.3592853546142578,
					"150": 0.6578842004140218,
					"200": 1.1179258823394775,
					"250": 1.8175334930419922,
					"300": 2.6837617556254068,
					"350": 3.812016328175863,
					"400": 5.305582841237386,
					"450": 6.6231175263722735
				}
			},
			"IDP3": {
				"edges_prop": {
					"50": 2.59179957707723,
					"100": 52.778333028157554,
					"150": "-1",
					"200": "-1",
					"250": "-1",
					"300": "-1",
					"350": "-1",
					"400": "-1",
					"450": "-1"
				}
			},
			"IDP-Z3": {
				"edges_prop": {
					"50": 1.6298473676045735,
					"100": 6.540415048599243,
					"150": 16.402602434158325,
					"200": 33.443540255228676,
					"250": 61.88191159566244,
					"300": 106.62301476796468,
					"350": 173.1088190873464,
					"400": "-1",
					"450": "-1"
				}
			},
			"ManyWorlds": {
				"edges_prop": {
					"50": 0.4193394184112549,
					"100": 8.802520990371704,
					"150": 75.65090974171956,
					"200": "-1",
					"250": "-1",
					"300": "-1",
					"350": "-1",
					"400": "-1",
					"450": "-1"
				}
			},
			"Z3Py": {
				"Edges/edges_prop_fun": {
					"50": 0.7559551397959391,
					"100": 2.866618553797404,
					"150": 6.986941576004028,
					"200": 13.906598647435507,
					"250": 25.032617648442585,
					"300": 42.06121071179708,
					"350": 66.89120721817017,
					"400": 101.94586968421936,
					"450": 148.86925943692526
				},
				"Edges/edges_prop_ground": {
					"50": 0.32982468605041504,
					"100": 1.0317389170328777,
					"150": 2.181325912475586,
					"200": 3.8964805603027344,
					"250": 6.013908306757609,
					"300": 8.62035322189331,
					"350": 11.810643911361694,
					"400": 15.831558068593344,
					"450": 19.53214740753174
				}
			}
		},
		"Stu-Reject Propagation": {
			"ASP": {
				"Stu-Reject/stureject_prop": {
					"10": 1.1246163845062256,
					"20": 6.043334881464641,
					"30": 17.68044884999593,
					"40": 35.75507267316183,
					"50": 69.19736925760905,
					"60": 104.41871809959412,
					"70": "-1",
					"80": "-1",
					"90": "-1",
					"100": "-1"
				}
			},
			"FIZ": {
				"Stu-Reject/stureject_prop": {
					"10": 0.27535223960876465,
					"20": 0.6659639676411947,
					"30": 1.2499168713887532,
					"40": 2.290437698364258,
					"50": 3.522494633992513,
					"60": 5.27788503964742,
					"70": 7.603298902511597,
					"80": 10.266685565312704,
					"90": 13.652805010477701,
					"100": 15.991460720698038
				}
			},
			"IDP3": {
				"Stu-Reject/stureject_prop": {
					"10": 8.998212496439615,
					"20": 65.37048935890198,
					"30": "-1",
					"40": "-1",
					"50": "-1",
					"60": "-1",
					"70": "-1",
					"80": "-1",
					"90": "-1",
					"100": "-1"
				}
			},
			"IDP-Z3": {
				"Stu-Reject/stureject_prop": {
					"10": 1.617782433827718,
					"20": 5.78206467628479,
					"30": 13.84993839263916,
					"40": 27.923996051152546,
					"50": 51.100377559661865,
					"60": 87.94722779591878,
					"70": 143.50879335403442,
					"80": 221.5128215154012,
					"90": "-1",
					"100": "-1"
				}
			},
			"ManyWorlds": {
				"Stu-Reject/stureject_prop": {
					"10": 0.9169126351674398,
					"20": 9.481165806452433,
					"30": 68.47156524658203,
					"40": "-1",
					"50": "-1",
					"60": "-1",
					"70": "-1",
					"80": "-1",
					"90": "-1",
					"100": "-1"
				}
			}
		},
		"Laptop": {
			"FIZ": {
				"Laptops/laptop": {
					"100": 0.2647375265757243,
					"200": 0.595154603322347,
					"300": 1.0623074372609456,
					"400": 1.6973448594411213,
					"500": 2.5675087769826255,
					"600": 3.901005506515503,
					"700": 5.098376433054606,
					"800": 6.541076421737671,
					"900": 8.166541337966919,
					"1000": 9.615411122639975,
					"1100": 11.980652888615927,
					"1200": 13.795392354329428,
					"1300": 15.733860651652018,
					"1400": 18.68474284807841,
					"1500": 21.598487695058186,
					"1600": 23.93019962310791,
					"1700": 26.63134280840556,
					"1800": 30.128054698308308,
					"1900": 32.96744759877523,
					"2000": 36.71215772628784,
					"2100": 40.11054539680481
				}
			},
			"IDP-Z3": {
				"Laptops/laptop": {
					"100": 1.5876011848449707,
					"200": 2.951771100362142,
					"300": 4.407874822616577,
					"400": 6.067954381306966,
					"500": 7.937686045964559,
					"600": 9.378459056218466,
					"700": 11.139285008112589,
					"800": 12.93171469370524,
					"900": 14.848154544830322,
					"1000": 16.98711125055949,
					"1100": 19.16040603319804,
					"1200": 21.588199694951374,
					"1300": 24.449340025583904,
					"1400": 26.149487098058064,
					"1500": 29.23935039838155,
					"1600": 32.250337759653725,
					"1700": 34.464776277542114,
					"1800": 37.539502461751304,
					"1900": 39.96465063095093,
					"2000": 42.51976672808329,
					"2100": 46.259995460510254
				}
			},
			"ASP": {
				"": {
					"100": 0.003174463907877604,
					"200": 0.0032596588134765625,
					"300": 0.00435789426167806,
					"400": 0.004638512929280599,
					"500": 0.0046931107838948565,
					"600": 0.004830519358317058,
					"700": 0.004428386688232422,
					"800": 0.0033484299977620444,
					"900": 0.0037109057108561196,
					"1000": 0.004572947820027669,
					"1100": 0.0043913523356119795,
					"1200": 0.0043010711669921875,
					"1300": 0.003594636917114258,
					"1400": 0.002755324045817057,
					"1500": 0.002442518870035807,
					"1600": 0.0026356379191080728,
					"1700": 0.0027992725372314453,
					"1800": 0.003464221954345703,
					"1900": 0.004339694976806641,
					"2000": 0.0043074289957682295,
					"2100": 0.0041684309641520185
				}
			}
		},
		"Small Triangle Graph": {
			"ASP": {
				"TriangleGraph/triangle_graph": {
					"10": 0.0035036404927571616,
					"20": 0.0036217371622721353,
					"30": 0.004700422286987305,
					"40": 0.0047003428141276045,
					"50": 0.004648288091023763,
					"60": 0.004728078842163086,
					"70": 0.005080064137776692
				}
			},
			"FIZ": {
				"TriangleGraph/triangle_graph": {
					"10": 0.1659837563832601,
					"20": 0.8134884039560953,
					"30": 2.5904785792032876,
					"40": 6.439881881078084,
					"50": 13.691199541091919,
					"60": 23.942442973454792,
					"70": 38.65713802973429
				}
			},
			"FOLASP": {
				"TriangleGraph/triangle_graph": {
					"10": 0.13600722948710123,
					"20": 0.38265220324198407,
					"30": 1.1161247889200847,
					"40": 2.8435192108154297,
					"50": 6.399399042129517,
					"60": 12.928212881088257,
					"70": 24.798975467681885
				}
			},
			"IDP3": {
				"TriangleGraph/triangle_graph": {
					"10": 0.07352256774902344,
					"20": 0.130414088567098,
					"30": 0.1805729071299235,
					"40": 0.33223779996236164,
					"50": 0.5838414033253988,
					"60": 1.0857932567596436,
					"70": 1.490208625793457
				}
			},
			"IDP-Z3": {
				"TriangleGraph/triangle_graph": {
					"10": 0.38384588559468585,
					"20": 1.7675505479176838,
					"30": 6.207499186197917,
					"40": 17.94586141904195,
					"50": 46.835690100987755,
					"60": 111.08501553535461,
					"70": "-1"
				}
			},
			"ManyWorlds": {
				"TriangleGraph/triangle_graph": {
					"10": 0.011967738469441732,
					"20": 0.011597871780395508,
					"30": 0.010735193888346354,
					"40": 0.012102127075195312,
					"50": 0.01206350326538086,
					"60": 0.011181513468424479,
					"70": 0.012815713882446289
				}
			},
			"SLI": {
				"TriangleGraph/triangle_graph": {
					"10": 0.028934717178344727,
					"20": 0.13117273648579916,
					"30": 0.43895284334818524,
					"40": 1.050969918568929,
					"50": 2.0918678442637124,
					"60": 3.7013675371805825,
					"70": 6.523859580357869
				}
			}
		},
		"Large Triangle Graph": {
			"ASP": {
				"TriangleGraph/large_triangle_graph": {
					"10": 0.0033909479777018228,
					"100": 0.004989226659138997,
					"1000": 0.015044212341308594,
					"10000": 0.11930910746256511,
					"100000": 1.3882338205973308,
					"1000000": 14.666483958562216
				}
			},
			"FIZ": {
				"TriangleGraph/large_triangle_graph": {
					"10": 0.1956493059794108,
					"100": 115.36788026491801,
					"1000": "-1",
					"10000": "-1",
					"100000": "-1",
					"1000000": "-1"
				}
			},
			"FOLASP": {
				"TriangleGraph/large_triangle_graph": {
					"10": 0.12162129084269206,
					"100": 130.06983415285745,
					"1000": "-1",
					"10000": "-1",
					"100000": "-1",
					"1000000": "-1"
				}
			},
			"IDP3": {
				"TriangleGraph/large_triangle_graph": {
					"10": 0.08847324053446452,
					"100": 4.70469609896342,
					"1000": "-1",
					"10000": "-1",
					"100000": "-1",
					"1000000": "-1"
				}
			},
			"IDP-Z3": {
				"TriangleGraph/large_triangle_graph": {
					"10": 0.3523772557576497,
					"100": "-1",
					"1000": "-1",
					"10000": "-1",
					"100000": "-1",
					"1000000": "-1"
				}
			},
			"ManyWorlds": {
				"TriangleGraph/large_triangle_graph": {
					"10": 0.010234435399373373,
					"100": 0.014248053232828775,
					"1000": 0.02953640619913737,
					"10000": 0.2362208366394043,
					"100000": 3.454171339670817,
					"1000000": 50.532278617223106
				}
			},
			"SLI": {
				"TriangleGraph/large_triangle_graph": {
					"10": 0.0258486270904541,
					"100": 17.683021624883015,
					"1000": "-1",
					"10000": "-1",
					"100000": "-1",
					"1000000": "-1"
				}
			}
		}
	},
	"date": "08:47AM on June 06, 2024"
}